\relax 
\@writefile{toc}{\contentsline {chapter}{\numberline {3}D\'epouillement et analyse des candidatures}{13}}
\@writefile{lof}{\addvspace {10\p@ }}
\@writefile{lot}{\addvspace {10\p@ }}
\@writefile{toc}{\contentsline {section}{\numberline {3.1}Les candidatures rejet\'ees}{13}}
\@writefile{toc}{\contentsline {section}{\numberline {3.2}Classement des candidatures retenues par ordre de m\'erite}{13}}
\@writefile{lot}{\contentsline {table}{\numberline {3.1}{\ignorespaces D\'etails des candidatures re\c cues}}{13}}
\newlabel{tab21}{{3.1}{13}}
\@writefile{lot}{\contentsline {table}{\numberline {3.2}{\ignorespaces Les candidatures rejet\'ees}}{14}}
\newlabel{tab22}{{3.2}{14}}
\@writefile{lot}{\contentsline {table}{\numberline {3.3}{\ignorespaces Les candidatures retenues class\'ees par ordre de m\'erite}}{14}}
\newlabel{tab23}{{3.3}{14}}
\@setckpt{Analyse}{
\setcounter{page}{15}
\setcounter{equation}{0}
\setcounter{enumi}{3}
\setcounter{enumii}{0}
\setcounter{enumiii}{0}
\setcounter{enumiv}{0}
\setcounter{footnote}{0}
\setcounter{mpfootnote}{0}
\setcounter{part}{0}
\setcounter{chapter}{3}
\setcounter{section}{2}
\setcounter{subsection}{0}
\setcounter{subsubsection}{0}
\setcounter{paragraph}{0}
\setcounter{subparagraph}{0}
\setcounter{figure}{0}
\setcounter{table}{3}
\setcounter{vrcnt}{0}
}
