\relax 
\bibcite{latexcompanion}{1}
\bibcite{einstein}{2}
\bibcite{knuthwebsite}{3}
\@writefile{toc}{\contentsline {chapter}{Bibliographie}{13}}
\@setckpt{Bib}{
\setcounter{page}{14}
\setcounter{equation}{0}
\setcounter{enumi}{5}
\setcounter{enumii}{0}
\setcounter{enumiii}{0}
\setcounter{enumiv}{3}
\setcounter{footnote}{0}
\setcounter{mpfootnote}{0}
\setcounter{part}{0}
\setcounter{chapter}{3}
\setcounter{section}{0}
\setcounter{subsection}{0}
\setcounter{subsubsection}{0}
\setcounter{paragraph}{0}
\setcounter{subparagraph}{0}
\setcounter{figure}{0}
\setcounter{table}{0}
\setcounter{vrcnt}{0}
}
