\relax 
\providecommand\hyper@newdestlabel[2]{}
\citation{1}
\citation{2}
\@writefile{toc}{\contentsline {chapter}{\numberline {1}\'ETUDE PR\'EALABLE}{2}{chapter.1}}
\@writefile{lof}{\addvspace {10\p@ }}
\@writefile{lot}{\addvspace {10\p@ }}
\@writefile{toc}{\contentsline {section}{Introduction}{2}{section*.7}}
\@writefile{toc}{\contentsline {section}{\numberline {1.1}Pr\'esentation de l'organisme d'accueil}{2}{section.1.1}}
\@writefile{toc}{\contentsline {subsection}{\numberline {1.1.1}Pr\'esentation du technopark elghazela }{2}{subsection.1.1.1}}
\@writefile{toc}{\contentsline {subsection}{\numberline {1.1.2}Pr\'esentation du cyberparc }{3}{subsection.1.1.2}}
\@writefile{toc}{\contentsline {subsection}{\numberline {1.1.3}Services et domaines d'activit\'e du cyberparc}{3}{subsection.1.1.3}}
\@writefile{toc}{\contentsline {section}{\numberline {1.2}Pr\'esentation du projet}{3}{section.1.2}}
\@writefile{toc}{\contentsline {subsection}{\numberline {1.2.1}Contexte du projet}{3}{subsection.1.2.1}}
\@writefile{toc}{\contentsline {subsection}{\numberline {1.2.2}Probl\'ematique}{4}{subsection.1.2.2}}
\@writefile{toc}{\contentsline {subsection}{\numberline {1.2.3}Objectifs du projet}{4}{subsection.1.2.3}}
\@writefile{toc}{\contentsline {section}{Conclusion}{5}{section*.8}}
\@setckpt{Chapitre1}{
\setcounter{page}{6}
\setcounter{equation}{0}
\setcounter{enumi}{0}
\setcounter{enumii}{0}
\setcounter{enumiii}{0}
\setcounter{enumiv}{0}
\setcounter{footnote}{0}
\setcounter{mpfootnote}{0}
\setcounter{part}{0}
\setcounter{chapter}{1}
\setcounter{section}{2}
\setcounter{subsection}{3}
\setcounter{subsubsection}{0}
\setcounter{paragraph}{0}
\setcounter{subparagraph}{0}
\setcounter{figure}{0}
\setcounter{table}{0}
\setcounter{Item}{0}
\setcounter{Hfootnote}{0}
\setcounter{bookmark@seq@number}{14}
\setcounter{vrcnt}{0}
\setcounter{parentequation}{0}
\setcounter{section@level}{2}
}
