\relax 
\providecommand\hyper@newdestlabel[2]{}
\@writefile{toc}{\contentsline {chapter}{\numberline {5}Test}{56}{chapter.5}}
\@writefile{lof}{\addvspace {10\p@ }}
\@writefile{lot}{\addvspace {10\p@ }}
\@writefile{toc}{\contentsline {section}{Introduction}{56}{section*.23}}
\@writefile{toc}{\contentsline {section}{\numberline {5.1}Gestion des tests avec JUnit}{56}{section.5.1}}
\@writefile{toc}{\contentsline {subsection}{\numberline {5.1.1}Les m\'ethodes de JUnit}{56}{subsection.5.1.1}}
\@writefile{lof}{\contentsline {figure}{\numberline {5.1}{\ignorespaces Exemple de test JUnit}}{57}{figure.5.1}}
\newlabel{imagEmp}{{5.1}{57}{Exemple de test JUnit}{figure.5.1}{}}
\@writefile{toc}{\contentsline {section}{Conclusion}{57}{section*.24}}
\@setckpt{Chapitre5}{
\setcounter{page}{58}
\setcounter{equation}{0}
\setcounter{enumi}{4}
\setcounter{enumii}{0}
\setcounter{enumiii}{0}
\setcounter{enumiv}{0}
\setcounter{footnote}{0}
\setcounter{mpfootnote}{0}
\setcounter{part}{0}
\setcounter{chapter}{5}
\setcounter{section}{1}
\setcounter{subsection}{1}
\setcounter{subsubsection}{0}
\setcounter{paragraph}{0}
\setcounter{subparagraph}{0}
\setcounter{figure}{1}
\setcounter{table}{0}
\setcounter{Item}{13}
\setcounter{Hfootnote}{0}
\setcounter{bookmark@seq@number}{63}
\setcounter{vrcnt}{0}
\setcounter{parentequation}{0}
\setcounter{section@level}{2}
}
