\relax 
\providecommand\hyper@newdestlabel[2]{}
\@writefile{toc}{\contentsline {chapter}{Conclusion G\'en\'erale}{58}{chapter*.25}}
\@setckpt{Conclusion}{
\setcounter{page}{59}
\setcounter{equation}{0}
\setcounter{enumi}{4}
\setcounter{enumii}{0}
\setcounter{enumiii}{0}
\setcounter{enumiv}{0}
\setcounter{footnote}{0}
\setcounter{mpfootnote}{0}
\setcounter{part}{0}
\setcounter{chapter}{5}
\setcounter{section}{1}
\setcounter{subsection}{1}
\setcounter{subsubsection}{0}
\setcounter{paragraph}{0}
\setcounter{subparagraph}{0}
\setcounter{figure}{1}
\setcounter{table}{0}
\setcounter{Item}{13}
\setcounter{Hfootnote}{0}
\setcounter{bookmark@seq@number}{64}
\setcounter{vrcnt}{0}
\setcounter{parentequation}{0}
\setcounter{section@level}{2}
}
