\addvspace {10\p@ }
\addvspace {10\p@ }
\contentsline {figure}{\numberline {2.1}{\ignorespaces Diagramme de cas d'utilisation g\'en\'eral}}{8}{figure.2.1}
\contentsline {figure}{\numberline {2.2}{\ignorespaces Diagramme de cas d'utilisation g\'erer les locations}}{10}{figure.2.2}
\contentsline {figure}{\numberline {2.3}{\ignorespaces Diagramme de cas d'utilisation g\'erer contrat }}{11}{figure.2.3}
\contentsline {figure}{\numberline {2.4}{\ignorespaces Diagramme de cas d'utilisation "g\'erer soci\'et\'e" }}{12}{figure.2.4}
\contentsline {figure}{\numberline {2.5}{\ignorespaces Diagramme de cas d'utilisation g\'erer r\'eclamation et incident}}{13}{figure.2.5}
\contentsline {figure}{\numberline {2.6}{\ignorespaces Diagramme de cas d'utilisation traiter une r\'eclamation ou un incident }}{17}{figure.2.6}
\contentsline {figure}{\numberline {2.7}{\ignorespaces Diagramme de cas d'utilisation gestion messagerie interne }}{18}{figure.2.7}
\contentsline {figure}{\numberline {2.8}{\ignorespaces Diagramme de cas d'utilisation gestion \'Ev\'enements }}{21}{figure.2.8}
\contentsline {figure}{\numberline {2.9}{\ignorespaces Diagramme de cas d'utilisation g\'erer CyberParc }}{23}{figure.2.9}
\contentsline {figure}{\numberline {2.10}{\ignorespaces Diagramme de cas d'utilisation g\'erer CyberParc }}{23}{figure.2.10}
\contentsline {figure}{\numberline {2.11}{\ignorespaces Diagramme de cas d'utilisation g\'erer CyberParc }}{24}{figure.2.11}
\addvspace {10\p@ }
\contentsline {figure}{\numberline {3.1}{\ignorespaces Architecture logicielle du projet}}{26}{figure.3.1}
\contentsline {figure}{\numberline {3.2}{\ignorespaces Diagramme de s\'equence "traiter une demande de location"}}{27}{figure.3.2}
\contentsline {figure}{\numberline {3.3}{\ignorespaces Diagramme de s\'equence "ajouter local"}}{28}{figure.3.3}
\contentsline {figure}{\numberline {3.4}{\ignorespaces Diagramme de s\'equence "modifier local"}}{29}{figure.3.4}
\contentsline {figure}{\numberline {3.5}{\ignorespaces Diagramme de s\'equence "supprimer local"}}{30}{figure.3.5}
\contentsline {figure}{\numberline {3.6}{\ignorespaces Diagramme de s\'equence "afficher la liste des locaux"}}{30}{figure.3.6}
\contentsline {figure}{\numberline {3.7}{\ignorespaces Diagramme de s\'equence "communiquer par messages"}}{31}{figure.3.7}
\contentsline {figure}{\numberline {3.8}{\ignorespaces Diagramme de classe du module gestion du cyberparc}}{32}{figure.3.8}
\contentsline {figure}{\numberline {3.9}{\ignorespaces Diagramme de classe du module gestion des \'ev\'enements}}{33}{figure.3.9}
\contentsline {figure}{\numberline {3.10}{\ignorespaces Diagramme de classe du module gestion des communications}}{34}{figure.3.10}
\contentsline {figure}{\numberline {3.11}{\ignorespaces Diagramme de classe du module gestion des r\'eclamations et incidents}}{35}{figure.3.11}
\contentsline {figure}{\numberline {3.12}{\ignorespaces Acc\'es direct vs. acc\`es via web services}}{37}{figure.3.12}
\contentsline {figure}{\numberline {3.13}{\ignorespaces Acc\`es direct \`a la base de donn\'ees}}{38}{figure.3.13}
\contentsline {figure}{\numberline {3.14}{\ignorespaces Acc\`es via les web services \`a la base de donn\'ees}}{38}{figure.3.14}
\contentsline {figure}{\numberline {3.15}{\ignorespaces Sch\'ema du syst\`eme d'authentification \`a base des jetons}}{41}{figure.3.15}
\addvspace {10\p@ }
\contentsline {figure}{\numberline {4.1}{\ignorespaces Interface d'authentification}}{48}{figure.4.1}
\contentsline {figure}{\numberline {4.2}{\ignorespaces Interface de gestion cyberparc}}{49}{figure.4.2}
\contentsline {figure}{\numberline {4.3}{\ignorespaces Interface d'ajout d'un cyberparc}}{49}{figure.4.3}
\contentsline {figure}{\numberline {4.4}{\ignorespaces Interface de suppression d'un cyberpar}}{50}{figure.4.4}
\contentsline {figure}{\numberline {4.5}{\ignorespaces Interface de gestion d'administrateur}}{50}{figure.4.5}
\contentsline {figure}{\numberline {4.6}{\ignorespaces Interface d'ajout d'un administrateur}}{51}{figure.4.6}
\contentsline {figure}{\numberline {4.7}{\ignorespaces Interface de gestion employ\'es}}{51}{figure.4.7}
\contentsline {figure}{\numberline {4.8}{\ignorespaces Interface d'ajout d'un employ\'e}}{52}{figure.4.8}
\contentsline {figure}{\numberline {4.9}{\ignorespaces Interface de gestion des demandes d'h\'ebergement}}{52}{figure.4.9}
\contentsline {figure}{\numberline {4.10}{\ignorespaces Interface de gestion des locaux}}{53}{figure.4.10}
\contentsline {figure}{\numberline {4.11}{\ignorespaces Interface d'ajout d'un nouveau local}}{53}{figure.4.11}
\contentsline {figure}{\numberline {4.12}{\ignorespaces Interface de l'agenda}}{54}{figure.4.12}
\contentsline {figure}{\numberline {4.13}{\ignorespaces Interface de gestion des r\'eclamations}}{54}{figure.4.13}
\contentsline {figure}{\numberline {4.14}{\ignorespaces Interface de r\'edaction d'une r\'eclamation}}{55}{figure.4.14}
\addvspace {10\p@ }
\contentsline {figure}{\numberline {5.1}{\ignorespaces Exemple de test JUnit}}{57}{figure.5.1}
\contentsline {figure}{\numberline {5.2}{\ignorespaces Pratique SCRUM: vue d'ensemble}}{59}{figure.5.2}
\contentsline {figure}{\numberline {5.3}{\ignorespaces Cycle de travail cot\'e Back-End}}{62}{figure.5.3}
