\relax 
\providecommand\hyper@newdestlabel[2]{}
\providecommand\HyperFirstAtBeginDocument{\AtBeginDocument}
\HyperFirstAtBeginDocument{\ifx\hyper@anchor\@undefined
\global\let\oldcontentsline\contentsline
\gdef\contentsline#1#2#3#4{\oldcontentsline{#1}{#2}{#3}}
\global\let\oldnewlabel\newlabel
\gdef\newlabel#1#2{\newlabelxx{#1}#2}
\gdef\newlabelxx#1#2#3#4#5#6{\oldnewlabel{#1}{{#2}{#3}}}
\AtEndDocument{\ifx\hyper@anchor\@undefined
\let\contentsline\oldcontentsline
\let\newlabel\oldnewlabel
\fi}
\fi}
\global\let\hyper@last\relax 
\gdef\HyperFirstAtBeginDocument#1{#1}
\providecommand\HyField@AuxAddToFields[1]{}
\providecommand\HyField@AuxAddToCoFields[2]{}
\@input{garde_fin.aux}
\@input{garde_sign_fin.aux}
\@input{Dedicaces.aux}
\@input{Remerciements.aux}
\@input{Introduction.aux}
\@input{Chapitre1.aux}
\@input{Chapitre2.aux}
\@input{Chapitre3.aux}
\@input{Chapitre4.aux}
\@input{Chapitre5.aux}
\@input{Conclusion.aux}
\@input{Annexe1.aux}
\bibstyle{unsrt}
\bibdata{Biblio}
\bibcite{1}{1}
\bibcite{2}{2}
\bibcite{3}{3}
\bibcite{4}{4}
\bibcite{5}{5}
\bibcite{6}{6}
\bibcite{7}{7}
\bibcite{8}{8}
\bibcite{9}{9}
\bibcite{10}{10}
\bibcite{11}{11}
\bibcite{12}{12}
\bibcite{13}{13}
\bibcite{14}{14}
\@writefile{toc}{\contentsline {chapter}{Webographie}{64}{chapter*.32}}
\bibcite{15}{15}
\bibcite{16}{16}
\@input{abstract.aux}
