\addvspace {10\p@ }
\addvspace {10\p@ }
\contentsline {table}{\numberline {2.1}{\ignorespaces Description textuelle de cas d'utilisation " d\'eposer une demande de location "}}{9}{table.2.1}
\contentsline {table}{\numberline {2.2}{\ignorespaces Description textuelle de cas d'utilisation " g\'erer les locaux "}}{10}{table.2.2}
\contentsline {table}{\numberline {2.3}{\ignorespaces Description textuelle de cas d'utilisation " traiter une demande de localisation "}}{11}{table.2.3}
\contentsline {table}{\numberline {2.4}{\ignorespaces Description textuelle de cas d'utilisation "g\'erer un contrat"}}{12}{table.2.4}
\contentsline {table}{\numberline {2.5}{\ignorespaces Description textuelle de cas d'utilisation " modifi\'e soci\'et\'e "}}{13}{table.2.5}
\contentsline {table}{\numberline {2.6}{\ignorespaces Description textuelle de cas d'utilisation "R\'ediger une r\'eclamation et signaler un incident"}}{14}{table.2.6}
\contentsline {table}{\numberline {2.7}{\ignorespaces Description textuelle de cas d'utilisation " Modifier une r\'eclamation ou un incident "}}{15}{table.2.7}
\contentsline {table}{\numberline {2.8}{\ignorespaces Description textuelle de cas d'utilisation " Annuler une r\'eclamation ou un incident "}}{16}{table.2.8}
\contentsline {table}{\numberline {2.9}{\ignorespaces Description textuelle de cas d'utilisation " traiter une r\'eclamation ou un incident "}}{17}{table.2.9}
\contentsline {table}{\numberline {2.10}{\ignorespaces Description textuelle de cas d'utilisation " communiquer "}}{18}{table.2.10}
\contentsline {table}{\numberline {2.11}{\ignorespaces Description textuelle de cas d'utilisation " Communiquer en groupe "}}{19}{table.2.11}
\contentsline {table}{\numberline {2.12}{\ignorespaces Description textuelle de cas d'utilisation " envoyer un message "}}{20}{table.2.12}
\contentsline {table}{\numberline {2.13}{\ignorespaces Description textuelle de cas d'utilisation " ajouter un fichier "}}{20}{table.2.13}
\contentsline {table}{\numberline {2.14}{\ignorespaces Description textuelle de cas d'utilisation " g\'erer \'ev\'enements "}}{21}{table.2.14}
\contentsline {table}{\numberline {2.15}{\ignorespaces Description textuelle de cas d'utilisation " ajouter participants "}}{22}{table.2.15}
\contentsline {table}{\numberline {2.16}{\ignorespaces Description textuelle de cas d'utilisation " Consulter la liste des participants "}}{22}{table.2.16}
\addvspace {10\p@ }
\addvspace {10\p@ }
\contentsline {table}{\numberline {4.1}{\ignorespaces Environnement mat\'eriel}}{45}{table.4.1}
\addvspace {10\p@ }
\contentsline {table}{\numberline {5.1}{\ignorespaces Identification d'\'equipe Scrum}}{60}{table.5.1}
\contentsline {table}{\numberline {5.2}{\ignorespaces Chronogramme}}{63}{table.5.2}
